[gd_scene load_steps=2 format=2]

[ext_resource path="res://BlenderFiles/CC0_Models/CoffeeCart_01.blend/CoffeeCart_01.glb" type="PackedScene" id=1]

[node name="CoffeeCart_01" instance=ExtResource( 1 )]
