[gd_scene load_steps=3 format=2]

[ext_resource path="res://Scripts/Nukkumatti/Nukkumatti.gd" type="Script" id=1]
[ext_resource path="res://Prefabs/Nukkumatti/NukkumattiModel.tscn" type="PackedScene" id=2]

[node name="Nukkumatti" type="Spatial"]
script = ExtResource( 1 )
spawn_positions_paths = [ null, null ]

[node name="NukkumattiModel" parent="." instance=ExtResource( 2 )]
[connection signal="player_entered_area" from="NukkumattiModel" to="." method="_on_player_entered_area"]
[connection signal="player_exited_area" from="NukkumattiModel" to="." method="_on_NukkumattiModel_player_exited_area"]
